constructor(props) {
    super(props);

    this.state = {
      firstName: "",
      lastName: ""
    }
  }

  componentDidMount() {
    this.fetch();
  }

  fetch() {
    var context = this;

    $.ajax({
      url: 'http://localhost:3000',
      method: 'GET',
      success: function(response) {
        context.setState({
          firstName: response.firstName,
          lastName: response.lastName
        });
      }
    });
  }



///////////////////

import React from 'react'  
import{Navbar,Container,Nav,NavDropdown,Form,FormControl,Button}  from 'react-bootstrap'
import 'bootstrap/dist/css/bootstrap.min.css';
import 'bootstrap/dist/js/bootstrap.min.js';
import { Grid, Image } from 'semantic-ui-react'
import CardActions from '@mui/material/CardActions';
import CardContent from '@mui/material/CardContent';

import Typography from '@mui/material/Typography';
import { styled } from '@mui/material/styles';
import Box from '@mui/material/Box';
import Paper from '@mui/material/Paper';
import Divider from "@material-ui/core/Divider";
import {
  MDBContainer, MDBCol, MDBRow
} from "mdb-react-ui-kit";
//import Grid from '@mui/material/Grid';

const GridExampleColumnWidth = () => (
  <Grid>
    <Grid.Column width={4}>
      <Image src='https://react.semantic-ui.com/images/wireframe/image.png' />
    </Grid.Column>
    <Grid.Column width={9}>
      <Image src='https://react.semantic-ui.com/images/wireframe/paragraph.png' />
    </Grid.Column>
    <Grid.Column width={3}>
      <Image src='https://react.semantic-ui.com/images/wireframe/media-paragraph.png' />
    </Grid.Column>
  </Grid>
)


const Root = styled('div')(({ theme }) => ({
  width: '100%',
  ...theme.typography.body2,
  '& > :not(style) + :not(style)': {
    marginTop: theme.spacing(2),
  },
}));

const card = (
  <React.Fragment>
    <CardContent>
      <Typography sx={{ fontSize: 14 }} color="text.secondary" gutterBottom>
       Mes réalisations
      </Typography>
      <Typography variant="h5" component="div">
     Mes projets
      </Typography>
      <Typography sx={{ mb: 1.5 }} color="text.secondary">
      text.secondary
      </Typography>
      <Typography variant="body2">
      body2
        
      </Typography>
    </CardContent>
    <CardActions>
      <Button size="small">Détails</Button>
    </CardActions>
  </React.Fragment>
);


class Portfolio extends React.Component {  
  
  render() {  
    return (  
      <div class='row'>
      <Navbar bg="light" expand="lg">
      <Container fluid>
        <Navbar.Brand href="#">Spac-El</Navbar.Brand>
        <Navbar.Toggle aria-controls="navbarScroll" />
        <Navbar.Collapse id="navbarScroll">
          <Nav
            className="me-auto my-2 my-lg-0"
            style={{ maxHeight: '90px' }}
            navbarScroll
          >
          
            
            <Nav.Link href="#" disabled>
              Link
            </Nav.Link>
          </Nav>
          <Nav.Link href="/Home">Home</Nav.Link>
         
        </Navbar.Collapse>
      </Container>
    </Navbar> 



    <div>
    <MDBContainer id='gfg'>
      <h2>Portfolio</h2>
      
  
      <MDBRow >
        <MDBCol md='3' >
        <img alt="img" width="193" height="140" src={require('./images/prf.jpg')} />
        </MDBCol>
        
        <MDBCol md='4'>
        <h2>informations personnelles</h2>
        <h2>  information 1</h2>
        <h2>  information 2</h2>
        <h2>  information 3</h2>
        
        </MDBCol>
        
        
        <MDBCol md='auto'>
       
        <Divider light  orientation="vertical"/>
        </MDBCol>
        <MDBCol md='4'>
        <h2>Mes Projets</h2>
        <h2>  Projets 1</h2>
        <h2>  Projets 2</h2>
        <h2>  Projets 3</h2>
        
        </MDBCol>

      </MDBRow>
  

 <Divider light />

      <MDBRow className=''>
        <MDBCol md='3' >
       
        </MDBCol>
      
  
        <MDBCol md='4'>
        <h2>Mes Contacts</h2>
        <h2>  LinkedIn </h2>
        <h2>  Email </h2>
        <h2>  github </h2>
        </MDBCol>


        <MDBCol md='4'>
        <h2>Lien Vers CV</h2>
        <h2>  CV </h2>
        <h2>  Email </h2>
        <h2>  github </h2>
        </MDBCol>

      </MDBRow>
  
     
    </MDBContainer>
    </div>
          </div>
    )  
  }  
}  




  res.end(
              JSON.stringify({
                firstName: "John",
                lastName: "Doe"
              })
            );



<div>
        <h1>{this.state.firstName} {this.state.IdTraining} 
        {this.state.ValTitreDeCompetence} {this.state.titreLP}</h1>
      </div>



  return (
      <div style={styles}>
    <MindMap nodes={mapdata.nodes} connections={mapdata.connections} />
    <h2>Start editing to see some magic happen {"\u2728"}</h2>
  </div>
      
    );





import React from 'react'  
import{Navbar,Container,Nav,NavDropdown,Form,FormControl,Button}  from 'react-bootstrap'
import 'bootstrap/dist/css/bootstrap.min.css';
import 'bootstrap/dist/js/bootstrap.min.js';
import $, { map } from 'jquery';
import { render } from "react-dom";
import MindMap from "react-mindmap";
import mapdata from "./map";
import { Tree } from 'react-tree-graph';
import { AnimatedTree } from 'react-tree-graph';

const styles = {
  fontFamily: "sans-serif",
  textAlign: "center"
};
const App = () => (
  <div style={styles}>
    <MindMap nodes={map.nodes} connections={map.connections} />
    <h2>Start editing to see some magic happen {"\u2728"}</h2>
  </div>
);

let data = {
	name: 'Parent',
	children: [{
		name: 'Child One'
	}, {
		name: 'Child Two' ,
    children: [{
      name: 'Child One Parent2'
    }, {
      name: 'Child Two Parent2'
    }] ,
	}] ,
 
 


};
class Portfolio extends React.Component {  

  constructor(props) {
    super(props);

    this.state = {
      firstName: " first name empty"
    }
  }
  
  componentDidMount() {
    this.fetch();
  }
  
  fetch() {
   
    var obj = {
      firstname: 'firstname',
      IdTraining :'IdTraining',
      ValTitreDeCompetence:'ValTitreDeCompetence',
       titreLP :'titreLP',
    
    }

  
    var context = this;
    var settings = {
      "async": true,
      "crossDomain": true,
      "url": "http://localhost:3000/portfolio",
      "method": "GET",
      "headers": {
          "content-type": "application/json"
      }
  };

  $.ajax(settings).done(function (response) {
    var json = $.parseJSON(response);
    console.log("json response"+json[0].firstname);
    context.setState({
      firstName: json[0].firstname,
      IdTraining :json[0].IdTraining,
      ValTitreDeCompetence:json[0].ValTitreDeCompetence,
      titreLP :json[0].titreLP,
    });
    
   console.log(response);
 
}
)};




render() {
 
  return (
    <div style={styles}>
  <Tree
    data={data}
    height={300}
   
    nodeProps={{
      height: 20,
      href: 'disc.png',
      width: 20
    }}
    nodeShape="rect" 
    //pathFunc={function noRefCheck(){}}
    
    width={300}/>

  </div>


 
);


  }
}  

export default Portfolio 
/////////////////
second page 

import React from 'react'  
import{Navbar,Container,Nav,NavDropdown,Form,FormControl,Button}  from 'react-bootstrap'
import 'bootstrap/dist/css/bootstrap.min.css';
import 'bootstrap/dist/js/bootstrap.min.js';
import $, { map } from 'jquery';
import { render } from "react-dom";
import MindMap from "react-mindmap";
import mapdata from "./map";
import { Tree } from 'react-tree-graph';
import { AnimatedTree } from 'react-tree-graph';
import React from 'react';
import ReactFlow, {
  addEdge,
  MiniMap,
  Controls,
  Background,
  useNodesState,
  useEdgesState,
} from 'react-flow-renderer';
import { nodes as initialNodes, edges as initialEdges } from './initial-elements';

const onInit = (reactFlowInstance) => console.log('flow loaded:', reactFlowInstance);
const OverviewFlow = () => {
  const [nodes, setNodes, onNodesChange] = useNodesState(initialNodes);
  const [edges, setEdges, onEdgesChange] = useEdgesState(initialEdges);
  const onConnect = (params) => setEdges((eds) => addEdge(params, eds));

const styles = {
  fontFamily: "sans-serif",
  textAlign: "center"
};
const App = () => (
  <div style={styles}>
    <MindMap nodes={map.nodes} connections={map.connections} />
    <h2>Start editing to see some magic happen {"\u2728"}</h2>
  </div>
);

let data = {
	name: 'Parent',
	children: [{
		name: 'Child One'
	}, {
		name: 'Child Two' ,
    children: [{
      name: 'Child One Parent2'
    }, {
      name: 'Child Two Parent2'
    }] ,
	}] ,
 
 


};
class Portfolio extends React.Component {  

  constructor(props) {
    super(props);

    this.state = {
      firstName: " first name empty"
    }
  }
  
  componentDidMount() {
    this.fetch();
  }
  
  fetch() {
   
    var obj = {
      firstname: 'firstname',
      IdTraining :'IdTraining',
      ValTitreDeCompetence:'ValTitreDeCompetence',
       titreLP :'titreLP',
    
    }

  
    var context = this;
    var settings = {
      "async": true,
      "crossDomain": true,
      "url": "http://localhost:3000/portfolio",
      "method": "GET",
      "headers": {
          "content-type": "application/json"
      }
  };

  $.ajax(settings).done(function (response) {
    var json = $.parseJSON(response);
    console.log("json response"+json[0].firstname);
    context.setState({
      firstName: json[0].firstname,
      IdTraining :json[0].IdTraining,
      ValTitreDeCompetence:json[0].ValTitreDeCompetence,
      titreLP :json[0].titreLP,
    });
    
   console.log(response);
 
}
)};




render() {
 
  

  return (
      <div style={styles}>
    <MindMap nodes={mapdata.nodes} connections={mapdata.connections} />
    <h2>Start editing to see some magic happen {"\u2728"}</h2>
  </div>
      
    );


  }
}  

export default Portfolio 






/////////////////

  var settings = {
    "async": true,
    "crossDomain": true,
    "url": "http://localhost:3000/portfolio",
    "method": "GET",
    "headers": {
        "content-type": "application/json"
    }
};
var tmp = null;
$.ajax(settings).done(function (response) {

  var json = $.parseJSON(response)
  tmp=response;
 console.log("json response"+json[0].firstname);
 data =[
  {
    id: json[0].firstname,
    type: 'input',
    data: {
      label: (
        <>
          Welcome to <strong>React Flow!</strong>
        </>
      ),
    },
    position: { x: 250, y: 0 },
  },
  {
    id: '2',
    data: {
      label: (
        <>
          This is a <strong>default node</strong>
        </>
      ),
    },
    position: { x: 100, y: 100 },
  },
  {
    id: '3',
    data: {
      label: (
        <>
          This one has a <strong>custom style</strong>
        </>
      ),
    },
    position: { x: 400, y: 100 },
    style: {
      background: '#D6D5E6',
      color: '#333',
      border: '1px solid #222138',
      width: 180,
    },
  },

]

data= "data ajax test";
});

return tmp;







////////////////
  var return_first = function () {
    var tmp = null;
    $.ajax({
        'async': false,
        "crossDomain": true,
        'type': "GET",
       // 'global': false,
       "url": "http://localhost:3000/portfolio",
       "method": "GET",
       "headers": {
           "content-type": "application/json"
       },
       // 'data': { 'request': "", 'target': 'arrange_url', 'method': 'method_target' },
        'success': function (data) {
            tmp = data;
        }
    });
    return tmp;
}();
var datatest = { employees: [] }   
for (let i = 0; i < json.length; i++) {

datatest.employees.push( {
   id: '4',
   position: { x: 250, y: 200 },
   data: {
     label: 'Another default node',
   },
} );

}
/////////////
 {
    id: '4',
    position: { x: 250, y: 200 },
    data: {
      label: 'Another default node',
    },
  },
  {
    id: '5',
    data: {
      label: 'Node id: 5',
    },
    position: { x: 250, y: 325 },
  },
  {
    id: '6',
    type: 'output',
    data: {
      label: (
        <>
          An <strong>output node</strong>
        </>
      ),
    },
    position: { x: 100, y: 480 },
  },




  
import React from 'react'  
import 'bootstrap/dist/css/bootstrap.min.css';
import 'bootstrap/dist/js/bootstrap.min.js';
import{Navbar,Container,Nav,NavDropdown,Form,FormControl,Button}  from 'react-bootstrap'
import 'bootstrap/dist/css/bootstrap.min.css';
import 'bootstrap/dist/js/bootstrap.min.js';
import { Grid, Image } from 'semantic-ui-react'
import CardActions from '@mui/material/CardActions';
import Divider from "@material-ui/core/Divider";
import {
  MDBContainer, MDBCol, MDBRow
} from "mdb-react-ui-kit";
//import Grid from '@mui/material/Grid';
import { styled } from '@mui/material/styles';
import Paper from '@mui/material/Paper';
import Box from '@mui/material/Box';


const Item = styled(Paper)(({ theme }) => ({
  backgroundColor: theme.palette.mode === 'dark' ? '#1A2027' : '#fff',
  ...theme.typography.body2,
  padding: theme.spacing(1),
  textAlign: 'center',
  color: theme.palette.text.secondary,
}));

 
            class Hpage extends React.Component{
              render() {  
                return ( 
                   <Box sx={{ width: '100%' }}>
                 
                  <Navbar bg="light" expand="lg">
                  <Container fluid>
                    <Navbar.Brand href="#">Spac-El</Navbar.Brand>
                    <Navbar.Toggle aria-controls="navbarScroll" />
                    <Navbar.Collapse id="navbarScroll">
                      <Nav
                        className="me-auto my-2 my-lg-0"
                        style={{ maxHeight: '90px' }}
                        navbarScroll
                      >

                        <Nav.Link href="/Home">Home</Nav.Link>
                      </Nav>

                      <Nav.Link href="/Home">Contact</Nav.Link>
                     
                    </Navbar.Collapse>
                  </Container>
                </Navbar> 

                
            


<Grid container rowSpacing={1} columnSpacing={{ xs: 1, sm: 2, md: 3 }}>
       
        <Grid item xs={8}>
          <Item>xs=9</Item>
        </Grid>
        <Grid item xs={4}>
          <Item>xs=4</Item>
        </Grid>
        <Grid item xs={4}>
          <Item>xs=4</Item>
        </Grid>
        <Grid item xs={8}>
          <Item>xs=8</Item>
        </Grid>
      </Grid>
    </Box>



                        
                )  
              }  
            }  
            
                
        
    
        export default Hpage;

                <Form.Label htmlFor="exampleColorInput">Choose color</Form.Label>
      <Form.Control
        type="color"
        id="exampleColorInput"
        defaultValue="#563d7c"
        title="Choose your color"
      />

          <Form>
    <Form.Group className="mb-3" controlId="formNewUSER">
                 <h1>
                  New User
                  </h1>
                  </Form.Group>

      <Form.Group className="mb-3" controlId="formBasicPassword">
        <Form.Label>Password</Form.Label>
        <Form.Control type="password" placeholder="Password" />
      </Form.Group>
      <Form.Group className="mb-3" controlId="formBasicCheckbox">
        <Form.Check type="checkbox" label="Check me out" />
      </Form.Group>
      <Button variant="primary" type="submit">
        Submit
      </Button>
      </Form> 

       <Form.Group className="mb-3" controlId="formBasicCheckbox">
        <Form.Check type="checkbox" label="Check me out" />
      </Form.Group>

       handleSubmit = e => {
                e.preventDefault();
                console.log(e.target.email.value);
            
                if (!e.target.email.value) {
                  alert("Email is required");
                } else if (!e.target.email.value) {
                  alert("Valid email is required");
                } else if (!e.target.password.value) {
                  alert("Password is required");
                } else if (
                  e.target.email.value === "me@example.com" &&
                  e.target.password.value === "123456"
                ) {
                  alert("Successfully logged in");
                  e.target.email.value = "";
                  e.target.password.value = "";
                } else {
                  alert("Wrong email or password combination");
                }
              };
            
              handleClick = e => {
                e.preventDefault();
            
                alert("Goes to registration page");
              };


              <React.StrictMode>
     <BrowserRouter>
   
     <Switch>
     <Route path="/">
          <Tpage/>
        </Route>

        <Route path="/Tpage">
          <Tpage />
        </Route>

        <Route path="/RegistrationPage">
          <RegistrationPage />
        </Route>
       

      
        <Route path="/LearningGraphDraft">
          <LearningGraphDraft />
        </Route>

        <Route path="/LearningGraph">
          <LearningGraph />
        </Route>
        <Route path="/MindmapDisplay">
          <MindmapDisplay />
        </Route>

       <Route path="/Nodetest">
          <PersonComponent />
        </Route>

        <Route path="/Portfolio">
          <Portfolio />
        </Route>

        <Route path="/Hpage">
          <Hpage />
        </Route>
        
      </Switch>

    </BrowserRouter>
  </React.StrictMode>

  
  app.post('/getPrs', (req, res) => {

	
	
var ListofPresqOfLo = querystring.stringify({query:
	" PREFIX rdf: <http://www.w3.org/1999/02/22-rdf-syntax-ns#> "
   + "PREFIX rdf: <http://www.w3.org/1999/02/22-rdf-syntax-ns#> "
   + "PREFIX owl: <http://www.w3.org/2002/07/owl#> " 
   + "PREFIX rdfs: <http://www.w3.org/2000/01/rdf-schema#> " 
   + "PREFIX xsd: <http://www.w3.org/2001/XMLSchema#>"
   + "PREFIX traino: <http://linc.iut.univ-paris8.fr/learningCafe/Training.owl#>"
   
	+ "JSON {'idRessource':?idPedagogicalResource,"
		+ "'titreRessource':?titlePedagogicalResource,'levelRessource':?levelPResource,'urlRessource':?urlPResource,"
	    + "'dureeRessource':?durationPResource,'formatRessource':?formatPedagogicalResource,"
	    + "'langRessource':?languagePedagogicalResource}"
		  

		    +"WHERE { "

			+"?trade rdf:type traino:Trade .  "
			+"?training traino:hasTrade ?trade ."
			+"?training rdf:type traino:Training ."
			+"  ?training traino:idTraining 'DEV' ."
			+"?training traino:hasLearningObject ?lo ."
			+" ?lo traino:idLearningObject 'LO1' ."
			+"	?lo  rdf:type traino:LearningObject ."
			+"	 ?nextlo traino:hasPrerequisiteLearningObject ?lo ."
			+"  ?nextlo rdf:type traino:LearningObject ."
			+" ?nextlo traino:idLearningObject ?idnextlo ."
			+"  ?nextlo  traino:titleLearningObject ?nexttitlelo ."
			+" ?lo traino:titleLearningObject ?previoustitlelo ."
			+" ?lo traino:hasPedagogicalResource ?pr ."
			+"  ?pr traino:idPedagogicalResource ?idPedagogicalResource ."
			+" ?pr traino:titlePedagogicalResource ?titlePedagogicalResource ."
			+"  optional { ?pr  traino:levelPedagogicalResource ?levelPedagogicalResource ."
				+"	 ?pr  traino:urlPedagogicalResource ?urlPedagogicalResource ."
				+" ?pr  traino:durationPedagogicalResource ?durationPedagogicalResource ."
				+"?pr  traino:formatPedagogicalResource ?formatPedagogicalResource ."
				+" ?pr  traino:languagePedagogicalResource ?languagePedagogicalResource .  }"
				+"	bind(str(?levelPedagogicalResource) as ?levelPResource) . "
				+" bind(str(?urlPedagogicalResource) as ?urlPResource) . "
				+"   bind(str(?durationPedagogicalResource) as ?durationPResource) . "
		  
		   + "} "
		    + "  order by  ?levelPResource "
		  
   }) ;
   request.post(
    
    {
        headers: {'content-type' : 'application/x-www-form-urlencoded'},
        url:'http://localhost:3030/testTrainoRdf/?'+ListofPresqOfLo
    },

    function (error, response, body) {
     if (!error && response.statusCode == 200) {
   
    console.log('successful connection to Fesuki : ListofPresqOfLo');
	ListofPresqOfLo=response.body;
	console.log('ListofPresqOfLo :'+ListofPresqOfLo);

  } 
  else
  {
   console.log(response.statusCode)
   console.warn(error);
  
  }
});
    console.log('req.body :'+ req.body); 
	console.log('body is ',body);
    //res.send(req.body);
	res.json(ListofPresqOfLo)
   
   })
